    /**
     * @dev Throws if called by any account other than the owner.
     */
    modifier onlyOwner() {
       require(_owner == _msgSender(), "Ownable: caller is not the owner");
        _;
    }
    
